…
#### Carros mais baratos do Brasil hoje (0 km)

``` r
data_vehicules %>% filter(year=="0 km") %>% 
  arrange(price) %>% 
  select(model, make, price)
```

    ## # A tibble: 40 x 3
    ##    model                               make    price
    ##    <chr>                               <chr>   <dbl>
    ##  1 KWID Life 1.0 Flex 12V 5p Mec.      Renault 34319
    ##  2 QQ 1.0 Look FL 12V/1.0 12V Flex 5p  CHERY   34455
    ##  3 QQ 1.0  ACT FL 12V/1.0 12V Flex  5p CHERY   34745
    ##  4 MOBI EASY 1.0 Fire Flex 5p.         Fiat    35060
    ##  5 MOBI EASY COMFORT 1.0 Flex 5p.      Fiat    36832
    ##  6 MOBI LIKE 1.0 Fire Flex 5p.         Fiat    40602
    ##  7 KWID Zen 1.0 Flex 12V 5p Mec.       Renault 41323
    ##  8 MOBI WAY 1.0 Fire Flex 5p.          Fiat    41992
    ##  9 Kwid ConnecTV 1.0 Flex 12V Mec.     Renault 42289
    ## 10 530 TALENT 1.5 16V 103cv 4p         LIFAN   43245
    ## # ... with 30 more rows
…
  ) 

#filtrar 1.0 ou custo novo <50mil e fazer mediana custo_mensal
#pegar comparar com 869,949 do unidas livre/mes
custos_carro %>% select(model, year, custo_carro_mes )
```

    ## # A tibble: 100 x 3
    ## # Groups:   model [31]
    ##    model                        year                   custo_carro_mes
    ##    <chr>                        <fct>                            <dbl>
    ##  1 530 TALENT 1.5 16V 103cv 4p  Comprou Novo                      905.
    ##  2 530 TALENT 1.5 16V 103cv 4p  Comprou com 1 Ano Uso             554.
    ##  3 530 TALENT 1.5 16V 103cv 4p  Comprou com 2 Anos Uso           1207.
    ##  4 530 TALENT 1.5 16V 103cv 4p  Comprou com 4 Anos Uso            621.
    ##  5 ARGO 1.0 6V Flex.            Comprou Novo                     1352.
    ##  6 ARGO 1.0 6V Flex.            Comprou com 1 Ano Uso             556.
    ##  7 ARGO DRIVE 1.0 6V Flex       Comprou Novo                     1623.
    ##  8 ARGO DRIVE 1.0 6V Flex       Comprou com 1 Ano Uso             619.
    ##  9 ETIOS X 1.3 Flex 16V 5p Mec. Comprou Novo                     1771.
    ## 10 ETIOS X 1.3 Flex 16V 5p Mec. Comprou com 1 Ano Uso             658.
    ## # ... with 90 more rows
…
### Qual carro sofre mais desvalorização (%) no 1o ano &lt;55mil

``` r
custos_carro %>% 
    filter(year == "Comprou Novo") %>% 
    arrange(pct_change) %>% 
    select(model, make, year, price, pct_change)
```

    ## # A tibble: 31 x 5
    ## # Groups:   model [31]
    ##    model                              make          year        price pct_change
    ##    <chr>                              <chr>         <fct>       <dbl>      <dbl>
    ##  1 UNO DRIVE 1.0 Flex 6V 5p           Fiat          Comprou No~ 48143      -28.2
    ##  2 UNO WAY 1.3 Flex 8V 5p             Fiat          Comprou No~ 53871      -27.9
    ##  3 SANDERO GT line Flex 1.0 12V 5p    Renault       Comprou No~ 54418      -27.6
    ##  4 ETIOS X 1.3 Flex 16V 5p Mec.       Toyota        Comprou No~ 52710      -26.2
    ##  5 Gol 1.0 Flex 12V 5p                VW - VolksWa~ Comprou No~ 48542      -25.1
    ##  6 Ka+ Sedan 1.0 SE/SE PLUS TiVCT Fl~ Ford          Comprou No~ 53404      -24.1
    ##  7 Ka 1.0 SE/SE Plus TiVCT Flex 5p    Ford          Comprou No~ 49547      -23.1
    ##  8 ARGO DRIVE 1.0 6V Flex             Fiat          Comprou No~ 52813      -22.7
    ##  9 UNO ATTRACTIVE 1.0 Fire Flex 8V 5p Fiat          Comprou No~ 44485      -22.7
    ## 10 UNO WAY 1.0 Flex 6V 5p             Fiat          Comprou No~ 50445      -21.2
    ## # ... with 21 more rows
…
